Date;N
01/02/2019;477
01/02/2020; 11
01/03/2019;460
01/04/2019;491
01/04/2020;369
01/06/2019; 14
01/07/2019;439
01/08/2019;438
01/10/2019;475
02/01/2019;479
02/01/2020;419
02/02/2019; 29
02/03/2020;381
02/04/2019;508
02/04/2020;306
02/05/2019;510
02/07/2019;439
02/08/2019;452
02/09/2019;440
02/10/2019;480
02/12/2019;428
03/01/2019;479
03/01/2020;432
03/02/2020;417
03/03/2020;439
03/04/2019;512
03/04/2020;306
03/05/2019;497
03/06/2019;483
03/07/2019;463
03/08/2019; 12
03/09/2019;449
03/10/2019;428
03/12/2019;445
04/01/2019;484
04/02/2019;482
04/02/2020;426
04/03/2019;470
04/03/2020;421
04/04/2019;491
04/04/2020; 11
04/06/2019;479
04/07/2019;414
04/09/2019;441
04/10/2019;491
04/11/2019;451
04/12/2019;427
05/01/2019; 13
05/02/2019;503
05/02/2020;419
05/03/2019;499
05/03/2020;436
05/04/2019;443
05/06/2019;494
05/07/2019;427
05/08/2019;427
05/09/2019;437
05/10/2019;  2
05/11/2019;441
05/12/2019;336
06/01/2020;369
06/02/2019;495
06/02/2020;362
06/03/2019;515
06/03/2020;433
06/04/2019; 18
06/04/2020;286
06/05/2019;505
06/06/2019;340
06/07/2019; 11
06/08/2019;382
06/09/2019;406
06/11/2019;458
06/12/2019;371
07/01/2019;442
07/01/2020;409
07/02/2019;448
07/02/2020;423
07/03/2019;464
07/04/2020;326
07/05/2019;488
07/06/2019;412
07/08/2019;423
07/10/2019;408
07/11/2019;379
07/12/2019; 18
08/01/2019;452
08/01/2020;402
08/02/2019;453
08/02/2020; 13
08/03/2019;490
08/04/2019;429
08/04/2020;356
08/05/2019;  1
08/06/2019; 13
08/07/2019;400
08/08/2019;424
08/10/2019;454
08/11/2019;488
09/01/2019;451
09/01/2020;351
09/02/2019; 13
09/03/2019; 26
09/03/2020;452
09/04/2019;478
09/04/2020;286
09/05/2019;466
09/07/2019;435
09/08/2019;455
09/09/2019;355
09/10/2019;439
09/11/2019; 28
09/12/2019;333
10/01/2019;493
10/01/2020;426
10/02/2020;407
10/03/2020;446
10/04/2019;478
10/04/2020;332
10/05/2019;466
10/07/2019;429
10/08/2019; 29
10/09/2019;406
10/10/2019;385
10/12/2019;319
11/01/2019;520
11/01/2020; 11
11/02/2019;441
11/02/2020;451
11/03/2019;468
11/03/2020;472
11/04/2019;466
11/04/2020; 25
11/06/2019;478
11/07/2019;463
11/09/2019;417
11/10/2019;432
11/11/2019;  1
11/12/2019;472
12/01/2019; 12
12/02/2019;470
12/02/2020;449
12/03/2019;463
12/03/2020;388
12/04/2019;445
12/06/2019;514
12/07/2019;443
12/08/2019;445
12/09/2019;429
12/10/2019; 14
12/11/2019;461
12/12/2019;453
13/01/2020;429
13/02/2019;523
13/02/2020;447
13/03/2019;490
13/03/2020;441
13/04/2019; 15
13/05/2019;450
13/06/2019;498
13/07/2019; 26
13/08/2019;415
13/09/2019;410
13/11/2019;480
13/12/2019;452
14/01/2019;523
14/01/2020;418
14/02/2019;467
14/02/2020;430
14/03/2019;462
14/03/2020; 11
14/04/2020;384
14/05/2019;448
14/06/2019;499
14/08/2019;420
14/09/2019; 18
14/10/2019;432
14/11/2019;458
14/12/2019; 19
15/01/2019;525
15/01/2020;456
15/02/2019;465
15/02/2020; 18
15/03/2019;503
15/04/2019;448
15/04/2020;366
15/05/2019;438
15/07/2019;363
15/08/2019; 39
15/10/2019;450
15/11/2019;478
16/01/2019;505
16/01/2020;446
16/02/2019; 14
16/03/2019; 13
16/03/2020;385
16/04/2019;471
16/04/2020;361
16/05/2019;485
16/07/2019;434
16/08/2019;409
16/09/2019;404
16/10/2019;490
16/12/2019;380
17/01/2019;443
17/01/2020;452
17/02/2020;390
17/03/2020;431
17/04/2019;531
17/04/2020;185
17/05/2019;440
17/06/2019;380
17/07/2019;463
17/08/2019;  2
17/09/2019;482
17/10/2019;475
17/12/2019;441
18/01/2019;484
18/01/2020; 13
18/02/2019;411
18/02/2020;447
18/03/2019;465
18/03/2020;410
18/04/2019;479
18/05/2019; 33
18/06/2019;418
18/07/2019;461
18/09/2019;450
18/10/2019;472
18/11/2019;411
18/12/2019;451
19/01/2019; 15
19/02/2019;463
19/02/2020;436
19/03/2019;504
19/03/2020;369
19/04/2019;469
19/06/2019;468
19/07/2019;460
19/08/2019;400
19/09/2019;449
19/10/2019; 14
19/11/2019;468
19/12/2019;401
20/01/2020;411
20/02/2019;469
20/02/2020;451
20/03/2019;467
20/03/2020;392
20/04/2019; 29
20/05/2019;387
20/06/2019;442
20/07/2019; 16
20/08/2019;440
20/09/2019;444
20/11/2019;458
20/12/2019;450
21/01/2019;453
21/01/2020;409
21/02/2019;470
21/02/2020;423
21/03/2019;496
21/03/2020;  4
21/05/2019;429
21/06/2019;416
21/08/2019;447
21/09/2019; 14
21/10/2019;437
21/11/2019;420
21/12/2019; 13
22/01/2019;501
22/01/2020;442
22/02/2019;484
22/03/2019;444
22/04/2019;  1
22/05/2019;487
22/06/2019; 42
22/07/2019;440
22/08/2019;424
22/09/2019;  1
22/10/2019;453
22/11/2019;384
23/01/2019;504
23/01/2020;379
23/02/2019; 32
23/03/2019; 18
23/03/2020;418
23/04/2019;480
23/05/2019;459
23/07/2019;448
23/08/2019;393
23/09/2019;436
23/10/2019;417
23/11/2019; 12
23/12/2019;455
24/01/2019;510
24/01/2020;352
24/02/2020;401
24/03/2020;395
24/04/2019;505
24/05/2019;474
24/06/2019;410
24/07/2019;461
24/08/2019; 13
24/09/2019;473
24/10/2019;393
24/12/2019;414
25/01/2019;440
25/02/2019;476
25/02/2020;388
25/03/2019;438
25/03/2020;389
25/04/2019;523
25/05/2019; 33
25/06/2019;398
25/07/2019;455
25/09/2019;474
25/10/2019;401
25/11/2019;408
26/01/2019; 12
26/02/2019;475
26/02/2020;476
26/03/2019;460
26/03/2020;376
26/04/2019;502
26/06/2019;455
26/07/2019;426
26/08/2019;425
26/09/2019;464
26/10/2019; 14
26/11/2019;455
26/12/2019;442
27/01/2020;384
27/02/2019;516
27/02/2020;393
27/03/2019;516
27/03/2020;395
27/05/2019;506
27/06/2019;467
27/07/2019; 16
27/08/2019;456
27/09/2019;464
27/11/2019;479
27/12/2019;436
28/01/2019;418
28/01/2020;446
28/02/2019;505
28/02/2020;395
28/03/2019;519
28/05/2019;526
28/06/2019;442
28/08/2019;461
28/09/2019; 19
28/10/2019;488
28/11/2019;387
29/01/2019;448
29/01/2020;447
29/02/2020; 13
29/03/2019;521
29/04/2019;472
29/05/2019;557
29/06/2019; 20
29/07/2019;421
29/08/2019;452
29/10/2019;454
29/11/2019;456
30/01/2019;511
30/01/2020;430
30/03/2019; 16
30/03/2020;376
30/04/2019;472
30/05/2019;  2
30/07/2019;440
30/08/2019;471
30/09/2019;454
30/10/2019;478
30/11/2019; 27
30/12/2019;460
31/01/2019;458
31/01/2020;386
31/03/2020;367
31/05/2019;478
31/07/2019;435
31/08/2019; 11
31/10/2019;445
31/12/2019;380
